…
addresses <- addresses %>% 
  mutate(full_address = paste(address, city, state, zip_code, sep=", ")) 
```

We then use `geocode` from `tinygeocoder`. It’s a very handy function
and easy to use. Here is the result. Note that some places are outside
of the city limits.

``` r
addresses  <- tidygeocoder::geocode(addresses %>% select(name, full_address), full_address, method = "osm")
addresses 
```

    ## # A tibble: 22 x 4
    ##    name                  full_address                                  lat  long
    ##    <chr>                 <chr>                                       <dbl> <dbl>
    ##  1 ARCO Arena            1 Sports Pkwy, Sacramento, CA, 95834         38.6 -122.
    ##  2 Natomas Middle School 3200 N Park Dr, Sacramento, CA, 95835        38.7 -122.
    ##  3 Nash & Proper         3270 Northgate Blvd, Sacramento, CA, 95833   38.6 -121.
    ##  4 Saigon Corner         1589 W El Camino Ave, Sacramento, CA, 95833  38.6 -122.
    ##  5 Las Nenas Taqueria    716 Bell Ave, Sacramento, CA, 95838          38.6 -121.
    ##  6 South                 2005 11th St, Sacramento, CA, 95818          38.6 -121.
    ##  7 La Favorita Taqueria  8887 Folsom Blvd , Sacramento, CA, 95826     38.6 -121.
    ##  8 Sac State             6000 J St, Sacramento, CA, 95819             38.6 -121.
    ##  9 Trader Joe's          5000 Folsom Blvd, Sacramento, CA, 95819      38.6 -121.
    ## 10 McClatchy Park        3500 5th Ave, Sacramento, CA, 95817          38.5 -121.
    ## # … with 12 more rows
…
Now we left\_join the data frame above and we have our result! Note that
the following places are outside of the city limits so has no council
district:

-   99 Ranch (off of highway 99 - not in city limits)
-   Kingdom Coffee Roasters (Folsom)
-   Temple Coffee (Arden)

``` r
addresses %>% select(name, full_address, council_member) %>% 
            left_join(districts)
```

    ## # A tibble: 22 x 4
    ##    name             full_address                     council_member  cc_district
    ##    <chr>            <chr>                            <chr>                 <int>
    ##  1 ARCO Arena       1 Sports Pkwy, Sacramento, CA, … Angelique Ashby           1
    ##  2 Natomas Middle … 3200 N Park Dr, Sacramento, CA,… Angelique Ashby           1
    ##  3 Nash & Proper    3270 Northgate Blvd, Sacramento… Jeff Harris               3
    ##  4 Saigon Corner    1589 W El Camino Ave, Sacrament… Jeff Harris               3
    ##  5 Las Nenas Taque… 716 Bell Ave, Sacramento, CA, 9… Sean Loloee               2
    ##  6 South            2005 11th St, Sacramento, CA, 9… Katie Valenzue…           4
    ##  7 La Favorita Taq… 8887 Folsom Blvd , Sacramento, … Eric Guerra               6
    ##  8 Sac State        6000 J St, Sacramento, CA, 95819 Jeff Harris               3
    ##  9 Trader Joe's     5000 Folsom Blvd, Sacramento, C… Jeff Harris               3
    ## 10 McClatchy Park   3500 5th Ave, Sacramento, CA, 9… Jay Schenirer             5
    ## # … with 12 more rows
…
